%YAML 1.1
%TAG !u! tag:unity3d.com,2011:
--- !u!21 &2100000
Material:
  serializedVersion: 6
  m_ObjectHideFlags: 0
  m_CorrespondingSourceObject: {fileID: 0}
  m_PrefabInstance: {fileID: 0}
  m_PrefabAsset: {fileID: 0}
  m_Name: Water
  m_Shader: {fileID: -6465566751694194690, guid: 2cddf2ee6a74aca44af00f5a49bd2cf1,
    type: 3}
  m_ShaderKeywords: 
  m_LightmapFlags: 4
  m_EnableInstancingVariants: 0
  m_DoubleSidedGI: 0
  m_CustomRenderQueue: -1
  stringTagMap: {}
  disabledShaderPasses: []
  m_SavedProperties:
    serializedVersion: 3
    m_TexEnvs:
    - Texture2D_6490A223:
        m_Texture: {fileID: 2800000, guid: f87d53fcaf34530488b706ee35d9b519, type: 3}
        m_Scale: {x: 1, y: 1}
        m_Offset: {x: 0, y: 0}
    m_Floats:
    - Vector1_17E53C12: 0.75
    - Vector1_244B0600: 1
    - Vector1_25BF59D1: 2
    - Vector1_36E8227: 0.5
    - Vector1_3D886DA1: 0
    - Vector1_46E42935: 0.2
    - Vector1_47683D42: 0.85
    - Vector1_63839A75: 2
    - Vector1_668A1419: 0.7
    - Vector1_70B1FC0F: 2
    - Vector1_717F60DE: 10
    - Vector1_8302ADB3: 2
    - Vector1_A0EAD698: 1
    - Vector1_A6A0BC26: 0.08
    - Vector1_B9F56378: 0.5
    - Vector1_C360A163: 2
    - Vector1_E5C51606: 0
    - Vector1_ED773BA4: 0.3
    - Vector1_F38B44AA: 0.2
    - _WaveFrequency: 3
    - _WaveScale: 0.1
    - _WaveSpeed: 1
    m_Colors:
    - Color_16E1627A: {r: 0.15472576, g: 0.21945706, b: 0.53773576, a: 1}
    - Color_424C19C3: {r: 0.42986828, g: 0.7924528, b: 0.7762662, a: 1}
    - Color_7D9A58EC: {r: 0.14035237, g: 0.16532877, b: 0.35849056, a: 0}
    - Color_E6500702: {r: 1, g: 1, b: 1, a: 1}
    - Color_F01C36BF: {r: 0.13082945, g: 0.6338817, b: 0.7924528, a: 1}
    - Vector2_37B21477: {r: 1, g: 1, b: 0, a: 0}
--- !u!114 &6091222668292389174
MonoBehaviour:
  m_ObjectHideFlags: 11
  m_CorrespondingSourceObject: {fileID: 0}
  m_PrefabInstance: {fileID: 0}
  m_PrefabAsset: {fileID: 0}
  m_GameObject: {fileID: 0}
  m_Enabled: 1
  m_EditorHideFlags: 0
  m_Script: {fileID: 11500000, guid: d0353a89b1f911e48b9e16bdc9f2e058, type: 3}
  m_Name: 
  m_EditorClassIdentifier: 
  version: 1
